…
Take a closer look and see what's going with the undetermined gender names by checking for patterns in the names and agencies. Can we do a better job?
```{r}
undetm <- salary %>%
  filter(Gender=="undetm") %>%
  group_by(First.Name, Employee.Name, Agency) %>%
  summarize (n = n()) %>%
  arrange(-n)

print(undetm)
```

>```
> [Out:]
> #  A tibble: 10,324 x 4
> #  Groups:   First.Name, Employee.Name [10,292]
> #   First.Name    Employee.Name                             Agency                        n
> #   <chr>         <chr>                                     <chr>                         <int>
> # 1 redacted      Redacted Undercover Redacted Undercover   Henderson                     16
> # 2 undercover    Undercover                                Sparks                        8
> # 3 escamilla     ESCAMILLA MARTIN                          University Medical Center     2
> # 4 gonzalez      GONZALEZ ANTHONY                          Clark County                  2
> # 5 gonzalez      GONZALEZ TOMAS                            Clark County                  2
> # 6 grana         GRANA JOHN                                Clark County                  2
> # 7 morales       MORALES JOSE                              Clark County                  2
> # 8 noi           PAPPAS, NOI                               Clark County                  2
> # 9 orozco        OROZCO ELIZABETH                          University Medical Center     2
> # 10 sandoval     SANDOVAL SANDRA                           University Medical Center     2
> # ... with 10,314 more rows
>```

Which agencies have employees with the most undetermined genders?
```{r}
undetm %>%
  group_by(Agency) %>%
  summarize (n = n()) %>%
  arrange(-n)
```

> ```
> [Out:]
> # A tibble: 81 x 2
> # Agency                                  n
> # <chr>                                <int>
> # 1 Clark County                       2906
> # 2 University Medical Center          2371
> # 3 Clark County School District       1837
> # 4 State of Nevada                     649
> # 5 Washoe County School District       430
> # 6 University of Nevada, Las Vegas     303
> # 7 University of Nevada, Reno          293
> # 8 Elko County                         213
> # 9 Las Vegas Metro Police Department   191
> # 10 Las Vegas                          134
># ... with 71 more rows
…
undetm %>%
  group_by(Agency) %>%
  summarize (n = n()) %>%
  arrange(-n)
```

```
[Out:]
# A tibble: 81 x 2
#   Agency                                n
#   <chr>                             <int>
# 1 Clark County                       2907
# 2 Clark County School District       1784
# 3 State of Nevada                     647
# 4 University Medical Center           444
# 5 University of Nevada, Las Vegas     228
# 6 Elko County                         213
# 7 University of Nevada, Reno          198
# 8 Las Vegas Metro Police Department   188
# 9 Washoe County School District       177
#10 Las Vegas                           133
# ... with 71 more rows
```
…
